Assessing prediction uncertainty with the bootstrap • safepredict
…
and all that remains to calculate a 90 percent confidence interval is to look at the quantiles of the bootstrapped fits:

pred_ci <- boot_preds %>% 
  group_by(.id) %>% 
  summarize(
    .pred_Yes_lower = quantile(.pred_Yes, 0.05),
    .pred_Yes_upper = quantile(.pred_Yes, 0.95)
  ) %>% 
  bind_cols(pred) %>% 
  select(-.pred_No)

pred_ci
#> # A tibble: 500 x 4
#>      .id .pred_Yes_lower .pred_Yes_upper .pred_Yes
#>    <int>           <dbl>           <dbl>     <dbl>
#>  1     1          0.158           0.160     0.160 
#>  2     2          0.0260          0.0549    0.0261
#>  3     3          0.0357          0.0609    0.0359
#>  4     4          0.121           0.150     0.149 
#>  5     5          0.0585          0.0812    0.0587
#>  6     6          0.0335          0.0858    0.0334
#>  7     7          0.232           0.244     0.242 
#>  8     8          0.134           0.179     0.134 
#>  9     9          0.170           0.263     0.262 
#> 10    10          0.111           0.191     0.111 
#> # ... with 490 more rows
…
