Predicting across sub-models • safepredict
…
Predictions for many lambda at once

Now we need to keep track of the observation that a prediction belongs to, and also \(\lambda\), so we add two new columns: id and lambda.

grid <- tibble(lambda = 1:10)

safe_predict(fit, test, type = "param_pred", params = grid)
#> # A tibble: 100 x 3
#>       id lambda    .pred
#>    <int> <chr>     <dbl>
#>  1     1 1       NA     
#>  2     2 1       -0.615 
#>  3     3 1       -0.109 
#>  4     4 1       -2.54  
#>  5     5 1        0.0170
#>  6     6 1        2.16  
#>  7     7 1        1.89  
#>  8     8 1       -2.35  
#>  9     9 1       -2.95  
#> 10    10 1       -0.435 
#> # ... with 90 more rows
…
x2 <-  rbind(
  matrix(rnorm(50 * 3), 50, 3),
  matrix(rnorm(50 * 3, 10), 50, 3)
)

test2 <- head(x2, 10)
diag(test2) <- NA

fit2 <- cv.glmnet(x2,  y2, family = "binomial")

NOTE: here we have already specified type, so we can’t pick between "prob" and "class" and just get class probabilities. I’m not a huge fan of this.

safe_predict(fit2, test2, type = "param_pred", params = grid)
#> # A tibble: 100 x 4
#>       id lambda .pred_A .pred_B
#>    <int>  <int>   <dbl>   <dbl>
#>  1     1      1   0.500     0.5
#>  2     2      1   0.500     0.5
#>  3     3      1   0.500     0.5
#>  4     4      1   0.500     0.5
#>  5     5      1   0.500     0.5
#>  6     6      1   0.500     0.5
#>  7     7      1   0.500     0.5
#>  8     8      1   0.500     0.5
#>  9     9      1   0.500     0.5
#> 10    10      1   0.500     0.5
#> # ... with 90 more rows

Predicting across multinomial sub-models

y3 <-  sample(LETTERS[1:5], 100, replace = TRUE)
fit3 <- cv.glmnet(x, y3, family = "multinomial")

safe_predict(fit3, test, type = "param_pred", params = grid)
#> # A tibble: 100 x 7
#>       id lambda .pred_A .pred_B .pred_C .pred_D .pred_E
#>    <int>  <int>   <dbl>   <dbl>   <dbl>   <dbl>   <dbl>
#>  1     1      1    0.13    0.26    0.18    0.21    0.22
#>  2     2      1    0.13    0.26    0.18    0.21    0.22
#>  3     3      1    0.13    0.26    0.18    0.21    0.22
#>  4     4      1    0.13    0.26    0.18    0.21    0.22
#>  5     5      1    0.13    0.26    0.18    0.21    0.22
#>  6     6      1    0.13    0.26    0.18    0.21    0.22
#>  7     7      1    0.13    0.26    0.18    0.21    0.22
#>  8     8      1    0.13    0.26    0.18    0.21    0.22
#>  9     9      1    0.13    0.26    0.18    0.21    0.22
#> 10    10      1    0.13    0.26    0.18    0.21    0.22
#> # ... with 90 more rows
…
