Safe predictions from an nls object — safe_predict.nls • safepredict
…
fit <- nls(demand ~ SSasympOrig(Time, A, lrc), data = BOD)
safe_predict(fit, BOD)
#> # A tibble: 6 x 1
#>   .pred
#>   <dbl>
#> 1  7.89
#> 2 12.5 
#> 3 15.3 
#> 4 16.9 
#> 5 17.8 
#> 6 18.7 

fit2 <- nls(mpg ~ k / wt + b, mtcars, start = list(k = 1, b = 0))
safe_predict(fit2, mtcars)
#> # A tibble: 32 x 1
#>    .pred
#>    <dbl>
#>  1  21.9
#>  2  20.3
#>  3  24.1
#>  4  18.6
#>  5  17.7
#>  6  17.6
#>  7  17.2
#>  8  18.8
#>  9  18.9
#> 10  17.7
#> # ... with 22 more rows
…
