Safe predictions from a loess object — safe_predict.loess • safepredict
…
If you request standard errors with std_error = TRUE, an additional
column .std_error.

For interval predictions, the tibble has additional attributes level
and interval. The level is the same as the level argument and is
between 0 and 1. interval is either "confidence" or "prediction".
Some models may also set a method attribute to detail the method
used to calculate the intervals.

    Examples

fit <- loess(mpg ~ wt, mtcars)
safe_predict(fit, mtcars)
#> # A tibble: 32 x 1
#>    .pred
#>    <dbl>
#>  1  22.2
#>  2  21.1
#>  3  24.6
#>  4  19.5
#>  5  17.9
#>  6  17.8
#>  7  17.2
#>  8  19.6
#>  9  19.8
#> 10  17.9
#> # ... with 22 more rows
safe_predict(fit, mtcars, std_error = TRUE)
#> # A tibble: 32 x 2
#>    .pred .std_error
#>    <dbl>      <dbl>
#>  1  22.2      1.01 
#>  2  21.1      1.07 
#>  3  24.6      1.03 
#>  4  19.5      0.861
#>  5  17.9      0.755
#>  6  17.8      0.747
#>  7  17.2      0.721
#>  8  19.6      0.866
#>  9  19.8      0.868
#> 10  17.9      0.755
#> # ... with 22 more rows
…
