Safe predictions from a multiple linear model object — safe_predict.mlm • safepredict
…
    stats::predict.mlm() provides neither confidence nor prediction
intervals, although there is not theoretical issue with calculating
these.

At some point in the future we may implement these intervals within
safepredict. If you are interested in this, you can move intervals
for mlm objects up the priority list by opening an issue on
Github.

    Examples

fit <- lm(cbind(hp, mpg) ~ ., mtcars)

safe_predict(fit, mtcars)
#> # A tibble: 32 x 2
#>    .pred_hp .pred_mpg
#>       <dbl>     <dbl>
#>  1    147.       21.8
#>  2    140.       21.5
#>  3     71.9      26.7
#>  4    127.       20.9
#>  5    186.       17.5
#>  6    107.       20.3
#>  7    227.       14.8
#>  8     81.9      22.1
#>  9     68.2      25.0
#> 10    148.       18.2
#> # ... with 22 more rows

mt2 <- mtcars
diag(mt2) <- NA

safe_predict(fit, mt2)
#> # A tibble: 32 x 2
#>    .pred_hp .pred_mpg
#>       <dbl>     <dbl>
#>  1     147.      21.8
#>  2      NA       NA  
#>  3      NA       NA  
#>  4     127.      20.9
#>  5      NA       NA  
#>  6      NA       NA  
#>  7      NA       NA  
#>  8      NA       NA  
#>  9      NA       NA  
#> 10      NA       NA  
#> # ... with 22 more rows
…
