Safe predictions from a linear model — safe_predict.lm • safepredict
…
    Details

    Do not use on model objects that only subclass lm. This will result
in an error.

    Examples

fit <- lm(hp ~ ., mtcars)

safe_predict(fit, mtcars)
#> # A tibble: 32 x 1
#>    .pred
#>    <dbl>
#>  1 149. 
#>  2 141. 
#>  3  80.0
#>  4 126. 
#>  5 183. 
#>  6 111. 
#>  7 228. 
#>  8  77.1
#>  9  72.7
#> 10 146. 
#> # ... with 22 more rows

mt2 <- mtcars
diag(mt2) <- NA

safe_predict(fit, mt2, std_error = TRUE)
#> # A tibble: 32 x 2
#>    .pred .pred_std_error
#>    <dbl>           <dbl>
#>  1   NA             NA  
#>  2   NA             NA  
#>  3   NA             NA  
#>  4  126.            11.9
#>  5   NA             NA  
#>  6   NA             NA  
#>  7   NA             NA  
#>  8   NA             NA  
#>  9   NA             NA  
#> 10   NA             NA  
#> # ... with 22 more rows
safe_predict(fit, mt2, type = "pred_int", level = 0.9)
#> # A tibble: 32 x 3
#>    .pred .pred_lower .pred_upper
#>    <dbl>       <dbl>       <dbl>
#>  1   NA         NA           NA 
#>  2   NA         NA           NA 
#>  3   NA         NA           NA 
#>  4  126.        76.6        175.
#>  5   NA         NA           NA 
#>  6   NA         NA           NA 
#>  7   NA         NA           NA 
#>  8   NA         NA           NA 
#>  9   NA         NA           NA 
#> 10   NA         NA           NA 
#> # ... with 22 more rows
…
